{
    "storckClientId": "storck-krakow",
    "clientId": "storck-ui-app2",
    "realm": "cern",
    "authUrl": "https://auth.cern.ch/auth",
    "tokenExchangeUrl": "https://auth.cern.ch/auth/realms/cern/protocol/openid-connect/token",
    "production": true,
    "apiUrl": "https://188.185.91.119:443/api"
}
